{
    "file": "upgrade.json",
    "is21p9_AOD": true,
    "selection": {
        "truth_jet_matching": false,
        "truth_primary_vertex_matching": false
    },
    "dl2_configs": [
        {
            "nn_file_path": "BTagging/20221008/dipsrun4/antikt4emtopo/network.json",
            "where": "btag"
        },
        {
            "nn_file_path": "BTagging/20221017/dl1drun4/antikt4emtopo/network.json",
            "where": "btag"
        },
        {
            "nn_file_path": "BTagging/20221010/GN1run4/antikt4emtopo/network.onnx",
            "engine": "gnn",
            "where": "btag"
        }
    ],
    "variables": {
        "btag": {
            "event": [
                "passPVTruthMatch",
                "nTruthInteractionsPerCrossing",
                "HGTDT0",
                "HGTDT0Resolution"
            ],
            "jet_char_variables": [
                "passJetTruthMatch"
            ],
            "floats": [
                "DL1_pb",
                "DL1_pc",
                "DL1_pu"
            ]
        }
    },
    "tracks": [
        {
            "n_to_save": 40,
            "selection": {
                "file": "fragments/ip3d-upgrade-loose-track-cuts.json"
            },
            "sort_order": "abs_beamspot_d0",
            "btagging_link": "btaggingLink",
            "input_name": "BTagTrackToJetAssociator",
            "output_name": "tracks",
            "variables": {
                "file": "fragments/pflow-track-variables-upgrade-HGTD.json"
            },
            "ip_prefix": "btagIp_"
        },
        {
            "n_to_save": 40,
            "selection": {
                "file": "fragments/ip3d-upgrade-loose-track-cuts-cutdelta.json"
            },
            "sort_order": "abs_beamspot_d0",
            "btagging_link": "btaggingLink",
            "input_name": "BTagTrackToJetAssociator",
            "output_name": "tracks_cutDeltaT",
            "variables": {
                "file": "fragments/pflow-track-variables-upgrade-HGTD.json"
            },
            "ip_prefix": "btagIp_"
        }
    ],
    "decorate": {
        "truth_pileup": true,
        "time_info": true,
        "track_truth_info": true,
        "track_sv_info": false,
        "truth_pass_matching": true
    }
}
